<?xml version="1.0" encoding="UTF-8"?>
<svg width="200px" height="200px" viewBox="0 0 200 200" version="1.1" xmlns="http://www.w3.org/2000/svg" xmlns:xlink="http://www.w3.org/1999/xlink">
    <!-- Generator: Sketch 49.3 (51167) - http://www.bohemiancoding.com/sketch -->
    <title>chart_bg2</title>
    <desc>Created with Sketch.</desc>
    <defs></defs>
    <g id="Page-1" stroke="none" stroke-width="1" fill="none" fill-rule="evenodd">
        <g id="chart_bg2">
            <circle id="Oval" fill="#FFFFFF" cx="100" cy="100" r="100"></circle>
            <path d="M11.6032561,117 L18.1601527,117 L22.4866005,117 L27.3463697,121.288851 L30.4293293,124.771453 L33.7824308,123.136677 L40.204567,123.136677 L43.7609712,123.136677 L46.689365,120.885727 L52.5029857,120.885727 L57.9364583,121.288851 L61.5276746,124.771453 L66.9430448,128.93498 L71.0759374,130.426331 L74.7715899,134.805693 L79.5798372,133.372827 L83.4927172,133.372827 L85.1469882,130.426331 L93.5826563,133.372827 L98.090127,134.805693 L102.65469,134.805693 L107.021519,139.236577 L113.003631,140.913128 L121.467148,139.236577 L127.956124,136.886064 L133.546947,139.236577 L140.818499,140.913128 L146.831245,143.748225 L152.917792,143.748225 L161.83526,140.913128 L168.342337,143.748225 L172.451558,148.496596 L173.833968,151.477729 C157.566713,174.766226 130.562376,190 100,190 C56.1061583,190 19.5514301,158.57752 11.6032561,117 Z" id="Combined-Shape" fill="#F6FAFB"></path>
            <rect id="Rectangle-3" fill="#D8D8D8" x="97" y="3" width="3" height="5"></rect>
            <rect id="Rectangle-3" fill="#D8D8D8" x="192" y="99" width="5" height="3"></rect>
            <polyline id="Path-3" stroke="#C7E9ED" stroke-width="2" points="11 117 18.1601527 117 22.4866005 117 27.3463697 121.288851 30.4293293 124.771453 33.7824308 123.136677 40.204567 123.136677 43.7609712 123.136677 46.689365 120.885727 52.5029857 120.885727 57.9364583 121.288851 61.5276746 124.771453 66.9430448 128.93498 71.0759374 130.426331 74.7715899 134.805693 79.5798372 133.372827 83.4927172 133.372827 85.1469882 130.426331 93.5826563 133.372827 98.090127 134.805693 102.65469 134.805693 107.021519 139.236577 113.003631 140.913128 121.467148 139.236577 127.956124 136.886064 133.546947 139.236577 140.818499 140.913128 146.831245 143.748225 152.917792 143.748225 161.83526 140.913128 168.342337 143.748225 172.451558 148.496596 174 151.835772"></polyline>
            <rect id="Rectangle-3" fill="#D8D8D8" x="3" y="99" width="5" height="3"></rect>
            <rect id="Rectangle-3" fill="#D8D8D8" x="98" y="192" width="3" height="5"></rect>
        </g>
    </g>
</svg>